<?xml version="1.0" encoding="UTF-8" standalone="no"?>
<!-- Created with Inkscape (http://www.inkscape.org/) -->
<svg xmlns="http://www.w3.org/2000/svg" height="25" width="25.333" version="1.0">
 <g stroke-width=".069613">
  <path d="m10.33 0.85833-9.3519 9.5697c-3.1597 3.9129 2.1503 3.4577 4.4267 4.5847 0.81656 0.83466-3.1298 1.4507-2.3132 2.2861 0.81656 0.83466 4.9376 1.6081 5.7556 2.4427 0.81656 0.83466-1.6714 1.7201-0.85485 2.5548 0.81656 0.83466 2.7052 0.043856 3.0588 1.9707 0.252 1.3769 3.4034 0.59171 4.9446-0.53602 0.81656-0.83536-1.5621-0.75669-0.74555-1.5914 2.0306-2.0766 3.9213-0.7546 4.616-2.8353 0.34319-1.0282-2.9892-1.5851-2.1712-2.4197 2.3494-1.3721 10.47-2.2652 6.6167-6.1183l-9.694-9.9087c-1.1855-1.1382-3.1639-1.1507-4.2882 0zm10.742 18.446c0 0.47476 3.4981 0.78593 3.4981-0.11208-0.49843-1.4424-3.0846-1.3449-3.4981 0.11208zm-15.758 2.523c0.8284 0.716 2.1079-0.178 2.4914-1.178-0.8026-1.066-3.8071 0.039-2.4914 1.178zm15.319-1.547c-1.0679 0.95787 0.11973 1.9297 1.1723 1.3108 0.2346-0.23808-0.0062652-1.0727-1.1723-1.3108z"/>
  <path d="m8.0919 15.531c0.24991 0.15524 4.0299 0.92307 4.9537 1.0762 0.32022 0.067525 0.093281 0.39749-0.34806 0.62025-0.99547 0.26453-5.8238-1.6965-4.6056-1.6965z" fill="#fff"/>
  <path d="m14.053 1.5294 3.6999 3.7577c0.35085 0.35851 0.34598 1.0532 0.14967 1.253l-1.838-1.4695-0.361 2.1761-1.535-0.8103-2.458 1.5531-0.814-3.2739-1.3203 2.2847h-2.0188c-0.82283 0-0.91959-1.0442-0.17194-1.7918 1.3059-1.4097 2.8047-2.8465 3.6192-3.679 0.81865-0.83675 2.245-0.81308 3.0477 0z" fill="#fff"/>
 </g>
</svg>
