<?xml version="1.0" encoding="UTF-8" standalone="no"?>
<svg xmlns:rdf="http://www.w3.org/1999/02/22-rdf-syntax-ns#" xmlns="http://www.w3.org/2000/svg" version="1.1" xmlns:cc="http://creativecommons.org/ns#" xmlns:xlink="http://www.w3.org/1999/xlink" viewBox="0 0 24.000397 24" xmlns:dc="http://purl.org/dc/elements/1.1/">
<metadata>
<rdf:RDF>
<cc:Work rdf:about="">
<dc:format>image/svg+xml</dc:format>
<dc:type rdf:resource="http://purl.org/dc/dcmitype/StillImage"/>
</cc:Work>
</rdf:RDF>
</metadata>
<defs>
<linearGradient id="k">
<stop stop-color="#5a5a5a" offset="0"/>
<stop offset="1"/>
</linearGradient>
<linearGradient id="i" y2="220.3475" xlink:href="#d" gradientUnits="userSpaceOnUse" x2="18.5289" gradientTransform="matrix(2.629849 0 0 .794339 973.2757 359.133)" y1="213.6631" x1="15.24248"/>
<linearGradient id="h" y2="215.0088" xlink:href="#c" gradientUnits="userSpaceOnUse" x2="18.70757" gradientTransform="matrix(3.494239,0,0,1.325753,957.3304,243.8052)" y1="218.5568" x1="20.10132"/>
<linearGradient id="g" y2="220.3475" xlink:href="#c" gradientUnits="userSpaceOnUse" x2="18.5289" gradientTransform="matrix(2.629849 0 0 .794339 973.2757 359.133)" y1="213.6631" x1="15.24248"/>
<linearGradient id="a" y2="209.2774" xlink:href="#k" gradientUnits="userSpaceOnUse" x2="14.01084" gradientTransform="matrix(2.8752 0 0 .854533 980.2863 352.892)" y1="203.3658" x1="10.04167"/>
<linearGradient id="e" y2="212.9197" xlink:href="#b" gradientUnits="userSpaceOnUse" x2="16.01938" gradientTransform="matrix(2.629849 0 0 .794339 973.2757 359.133)" y1="217.4612" x1="18.52884"/>
<linearGradient id="f" y2="217.8534" xlink:href="#b" gradientUnits="userSpaceOnUse" x2="19.32815" gradientTransform="matrix(3.494239,0,0,1.325753,957.3304,243.8052)" y1="215.1325" x1="18.13082"/>
<linearGradient id="b">
<stop stop-color="#ffeb74" offset="0"/>
<stop stop-color="#fff" offset="1"/>
</linearGradient>
<linearGradient id="c">
<stop stop-color="#fff" offset="0"/>
<stop stop-color="#ffacb5" offset="1"/>
</linearGradient>
<linearGradient id="j" y2="215.0088" xlink:href="#d" gradientUnits="userSpaceOnUse" x2="18.70757" gradientTransform="matrix(3.494239,0,0,1.325753,957.3304,243.8052)" y1="218.5568" x1="20.10132"/>
<linearGradient id="d">
<stop stop-color="#fff" offset="0"/>
<stop stop-color="#98b6d3" offset="1"/>
</linearGradient>
</defs>
<g transform="translate(-1094.002 -528)">
<rect style="color:#000000" fill-rule="evenodd" fill-opacity=".0214592" height="24" width="24" y="528" x="1094.002" stroke-width=".531496"/>
<g stroke-linejoin="round" stroke-miterlimit="0" transform="translate(84.00452 .0124335)">
<rect style="color:#000000" height="5.980974" width="22.99783" stroke="url(#a)" y="528.5066" x="1010.5" stroke-width="1.000002" fill="none"/>
<rect style="color:#000000" fill-rule="evenodd" height="3.982274" width="20.96796" stroke="url(#i)" stroke-linecap="round" y="529.5177" x="1011.52" stroke-width="1.000003" fill="url(#j)"/>
</g>
<g stroke-linejoin="round" stroke-miterlimit="0" transform="translate(84.00235,7.993409)">
<rect style="color:#000000" height="5.980974" width="22.99783" stroke="url(#a)" y="528.5066" x="1010.5" stroke-width="1.000002" fill="none"/>
<rect style="color:#000000" fill-rule="evenodd" height="3.982274" width="20.96796" stroke="url(#g)" stroke-linecap="round" y="529.5177" x="1011.52" stroke-width="1.000003" fill="url(#h)"/>
</g>
<g stroke-linejoin="round" stroke-miterlimit="0" transform="translate(84.00235,15.99341)">
<rect style="color:#000000" height="5.980974" width="22.99783" stroke="url(#a)" y="528.5066" x="1010.5" stroke-width="1.000002" fill="none"/>
<rect style="color:#000000" fill-rule="evenodd" height="3.982274" width="20.96796" stroke="url(#e)" stroke-linecap="round" y="529.5177" x="1011.52" stroke-width="1.000003" fill="url(#f)"/>
</g>
</g>
</svg>
