<?xml version="1.0" encoding="UTF-8" standalone="no"?>
<svg xmlns:rdf="http://www.w3.org/1999/02/22-rdf-syntax-ns#" xmlns="http://www.w3.org/2000/svg" version="1.1" xmlns:cc="http://creativecommons.org/ns#" xmlns:xlink="http://www.w3.org/1999/xlink" viewBox="0 0 24.110343 24.435007" xmlns:dc="http://purl.org/dc/elements/1.1/">
<metadata>
<rdf:RDF>
<cc:Work rdf:about="">
<dc:format>image/svg+xml</dc:format>
<dc:type rdf:resource="http://purl.org/dc/dcmitype/StillImage"/>
</cc:Work>
</rdf:RDF>
</metadata>
<defs>
<linearGradient id="g" y2="-34.57729" xlink:href="#a" gradientUnits="userSpaceOnUse" x2="185.5131" y1="-32.76031" x1="191.4072"/>
<linearGradient id="i" y2="217.8234" xlink:href="#a" gradientUnits="userSpaceOnUse" x2="17.31054" gradientTransform="matrix(2.404063,0,0,1.001693,-138.4499,-25.31992)" y1="213.2164" x1="16.04734"/>
<linearGradient id="k" y2="209.2774" xlink:href="#b" gradientUnits="userSpaceOnUse" x2="14.01084" gradientTransform="matrix(2.635962,0,0,1.002646,-132.1469,-17.5056)" y1="203.3658" x1="10.04167"/>
<linearGradient id="d" y2="214.6554" xlink:href="#a" gradientUnits="userSpaceOnUse" x2="18.82314" gradientTransform="matrix(1.427647 0 0 .862651 -58.98949 7.443876)" y1="219.9305" x1="20.21689"/>
<linearGradient id="a">
<stop stop-color="#fff" offset="0"/>
<stop stop-color="#98b6d3" offset="1"/>
</linearGradient>
<linearGradient id="l" y2="219.4184" xlink:href="#a" gradientUnits="userSpaceOnUse" x2="19.38252" gradientTransform="matrix(1.525151 0 0 .933201 -44.88385 -23.1282)" y1="213.872" x1="15.74156"/>
<linearGradient id="e" y2="209.2774" xlink:href="#b" gradientUnits="userSpaceOnUse" x2="14.01084" gradientTransform="matrix(1.275458 0 0 .617087 -51.07375 65.67334)" y1="203.3658" x1="10.04167"/>
<linearGradient id="f" y2="-32.76031" xlink:href="#a" gradientUnits="userSpaceOnUse" x2="187.8951" y1="-35.83336" x1="184.7529"/>
<linearGradient id="j" y2="215.2099" xlink:href="#a" gradientUnits="userSpaceOnUse" x2="17.75236" gradientTransform="matrix(3.19424,0,0,1.671823,-153.0264,-170.7525)" y1="218.9795" x1="18.84686"/>
<linearGradient id="h" y2="190.6634" xlink:href="#b" gradientUnits="userSpaceOnUse" x2="-31.90349" gradientTransform="matrix(.761633 0 0 .73832 -7.689547 50.44869)" y1="182.984" x1="-36.60167"/>
<linearGradient id="b">
<stop stop-color="#5a5a5a" offset="0"/>
<stop offset="1"/>
</linearGradient>
<linearGradient id="c" y2="219.6793" xlink:href="#a" gradientUnits="userSpaceOnUse" x2="17.94699" gradientTransform="matrix(1.074481 0 0 .516867 -52.4747 82.48618)" y1="213.872" x1="15.74156"/>
<linearGradient id="n" y2="209.2774" xlink:href="#b" gradientUnits="userSpaceOnUse" x2="14.01084" gradientTransform="matrix(2.114324,0,0,1.002646,-47.33758,-30.1841)" y1="203.3658" x1="10.04167"/>
<linearGradient id="m" y2="214.5512" xlink:href="#a" gradientUnits="userSpaceOnUse" x2="17.15024" gradientTransform="matrix(2.026443,0,0,1.557511,-54.13118,-158.6166)" y1="218.8883" x1="18.50864"/>
</defs>
<g transform="translate(-1071.7816,-189.7709)">
<rect opacity=".1978022" height="24" width="24" y="190.0499" x="1071.892" fill="none"/>
<g stroke-linejoin="round" stroke-miterlimit="0" transform="matrix(0 1.043478 .998006 0 894.32 299.5735)">
<rect style="color:#000000" height="7.017632" width="22.00094" stroke="url(#k)" y="187.554" x="-104.4881" stroke-width=".9799225" fill="none"/>
<rect style="color:#000000" fill-rule="evenodd" height="5.021792" width="20.21019" stroke="url(#i)" stroke-linecap="round" y="188.5476" x="-103.6973" stroke-width=".9799237" fill="url(#j)"/>
</g>
<g stroke-linejoin="round" stroke-linecap="round" stroke-miterlimit="0" transform="matrix(1.278077,0,0,2.547898,1136.87,-277.0242)">
<rect style="color:#000000" height="9.036107" width="3.142212" stroke="url(#h)" y="183.485" x="-35.49881" stroke-width=".554154" fill="none"/>
<rect style="color:#000000" fill-rule="evenodd" transform="matrix(0,1,1,0,0,0)" height="1.564824" width="8.243282" stroke="url(#f)" y="-34.71634" x="183.8775" stroke-width=".5541545" fill="url(#g)"/>
</g>
<g stroke-linejoin="round" stroke-miterlimit="0" transform="matrix(0 .41406501 .85571230 0 922.00706 200.89857)">
<rect style="color:#000000" height="7.017632" width="16.91182" stroke="url(#n)" y="175.8691" x="-25.11964" stroke-width="1.6799744" fill="none"/>
<rect style="color:#000000" fill-rule="evenodd" height="4.678422" width="12.16012" stroke="url(#l)" stroke-linecap="round" y="177.0416" x="-22.70454" stroke-width="1.6799736" fill="url(#m)"/>
</g>
<g stroke-linejoin="round" stroke-miterlimit="0" transform="matrix(0,1.176069,1.157927,0,849.5299,245.8438)">
<rect style="color:#000000" height="5.011148" width="10.98825" stroke="url(#e)" y="192.5597" x="-38.48989" stroke-width=".8569264" fill="none"/>
<rect style="color:#000000" fill-rule="evenodd" height="3.476375" width="9.363411" stroke="url(#c)" stroke-linecap="round" y="193.3" x="-37.68001" stroke-width=".8569259" fill="url(#d)"/>
</g>
</g>
</svg>
