<?xml version="1.0" encoding="UTF-8" standalone="no"?>
<svg xmlns:rdf="http://www.w3.org/1999/02/22-rdf-syntax-ns#" xmlns="http://www.w3.org/2000/svg" version="1.1" xmlns:cc="http://creativecommons.org/ns#" viewBox="0 0 16.017043 16" xmlns:dc="http://purl.org/dc/elements/1.1/">
<metadata>
<rdf:RDF>
<cc:Work rdf:about="">
<dc:format>image/svg+xml</dc:format>
<dc:type rdf:resource="http://purl.org/dc/dcmitype/StillImage"/>
</cc:Work>
</rdf:RDF>
</metadata>
<g transform="translate(45.01704,-175)">
<path stroke-linejoin="round" d="m-44.41296 176.5635c-0.52712 3.4524 0.87103 8.8935 6.87103 8.8935s7.55886-5.5701 7.08598-9.0225" stroke="#646464" stroke-linecap="round" stroke-miterlimit="0" stroke-width="1.0000002" fill="none"/>
<rect style="color:#000000" height="16" width="16" y="175" x="-45" fill="none"/>
<rect stroke-linejoin="round" style="color:#000000" fill-rule="evenodd" fill-opacity=".3921569" transform="translate(.0140001 -3.0535)" height="3.970665" width="3.957493" stroke="#00f" stroke-linecap="round" stroke-miterlimit="0" y="186.5" x="-39.45749" stroke-width="1.0000004" fill="#6464ff"/>
</g>
</svg>
