<?xml version="1.0" encoding="UTF-8" standalone="no"?>
<svg xmlns:rdf="http://www.w3.org/1999/02/22-rdf-syntax-ns#" xmlns="http://www.w3.org/2000/svg" version="1.1" xmlns:cc="http://creativecommons.org/ns#" xmlns:xlink="http://www.w3.org/1999/xlink" viewBox="0 0 16 16" xmlns:dc="http://purl.org/dc/elements/1.1/">
<metadata>
<rdf:RDF>
<cc:Work rdf:about="">
<dc:format>image/svg+xml</dc:format>
<dc:type rdf:resource="http://purl.org/dc/dcmitype/StillImage"/>
</cc:Work>
</rdf:RDF>
</metadata>
<defs>
<linearGradient id="a">
<stop stop-color="#fff" offset="0"/>
<stop stop-color="#98b6d3" offset="1"/>
</linearGradient>
<linearGradient id="c" y2="7" xlink:href="#a" gradientUnits="userSpaceOnUse" x2="6" y1="13" x1="8"/>
<linearGradient id="b" y2="13" xlink:href="#a" gradientUnits="userSpaceOnUse" x2="8" y1="7" x1="6"/>
<linearGradient id="d" y2="8" xlink:href="#a" gradientUnits="userSpaceOnUse" x2="13" y1="3" x1="8"/>
<linearGradient id="e" y2="3" xlink:href="#a" gradientUnits="userSpaceOnUse" x2="8" y1="8" x1="13"/>
</defs>
<rect stroke-linejoin="round" height="7" width="9" stroke="#222" y="6.5" x="2.5" fill="none"/>
<rect height="5" width="7" stroke="url(#b)" y="7.5" x="3.5" fill="url(#c)"/>
<circle stroke="#222" cy="5.5" cx="10.5" r="4" fill="none"/>
<circle stroke="url(#d)" cy="5.5" cx="10.5" r="3" fill="url(#e)"/>
<rect y="0" width="2" x="0" height="2"/>
<rect y="0" width="2" x="14" height="2"/>
<rect y="14" width="2" x="0" height="2"/>
<rect y="14" width="2" x="14" height="2"/>
</svg>
