<?xml version="1.0" encoding="UTF-8" standalone="no"?>
<svg xmlns:rdf="http://www.w3.org/1999/02/22-rdf-syntax-ns#" xmlns="http://www.w3.org/2000/svg" version="1.1" xmlns:cc="http://creativecommons.org/ns#" xmlns:xlink="http://www.w3.org/1999/xlink" viewBox="0 0 14.830774 15.125054" xmlns:dc="http://purl.org/dc/elements/1.1/">
<metadata>
<rdf:RDF>
<cc:Work rdf:about="">
<dc:format>image/svg+xml</dc:format>
<dc:type rdf:resource="http://purl.org/dc/dcmitype/StillImage"/>
</cc:Work>
</rdf:RDF>
</metadata>
<g stroke-width=".2773579" stroke="#ffffff" transform="translate(-372.48857,-136.97346)">
<use xlink:href="#a" transform="translate(8.861385,11.02164)" height="1250" width="1250" y="0" x="0"/>
<use xlink:href="#a" transform="translate(2.953795,11.09914)" height="1250" width="1250" y="0" x="0"/>
<use xlink:href="#a" transform="translate(11.11579,3.027365)" height="1250" width="1250" y="0" x="0"/>
<use xlink:href="#a" transform="translate(11.0383,9.082095)" height="1250" width="1250" y="0" x="0"/>
<use xlink:href="#a" transform="translate(10.38143,6.05473)" height="1250" width="1250" y="0" x="0"/>
<use xlink:href="#a" transform="translate(5.90759,10.40446)" height="1250" width="1250" y="0" x="0"/>
<circle id="a" style="color:#000000" stroke-width=".2773579" transform="matrix(1.20571,0,0,1.20571,-78.25832,-27.88514)" stroke="#fff" cy="137.9821" cx="375.0941" r="1.111868"/>
<use xlink:href="#a" transform="translate(8.706381 .9318868)" height="1250" width="1250" y="0" x="0"/>
<use xlink:href="#a" transform="translate(2.953795 .8543842)" height="1250" width="1250" y="0" x="0"/>
<use xlink:href="#a" transform="translate(11.81518)" height="1250" width="1250" y="0" x="0"/>
<use xlink:href="#a" transform="translate(1.317544,6.05473)" height="1250" width="1250" y="0" x="0"/>
<use xlink:href="#a" transform="translate(.7764177 9.082095)" height="1250" width="1250" y="0" x="0"/>
<use xlink:href="#a" transform="translate(5.90759,1.588803)" height="1250" width="1250" y="0" x="0"/>
<use xlink:href="#a" transform="translate(.6601638 3.027365)" height="1250" width="1250" y="0" x="0"/>
<use xlink:href="#a" transform="translate(3.225052,3.298622)" height="1250" width="1250" y="0" x="0"/>
<use xlink:href="#a" transform="translate(3.147551,8.733335)" height="1250" width="1250" y="0" x="0"/>
<use xlink:href="#a" transform="translate(5.90759,4.189904)" height="1250" width="1250" y="0" x="0"/>
<use xlink:href="#a" transform="translate(8.706381,3.376124)" height="1250" width="1250" y="0" x="0"/>
<use xlink:href="#a" transform="translate(3.961329,6.05473)" height="1250" width="1250" y="0" x="0"/>
<use xlink:href="#a" transform="translate(5.90759,7.764549)" height="1250" width="1250" y="0" x="0"/>
<use xlink:href="#a" transform="translate(7.698848,6.05473)" height="1250" width="1250" y="0" x="0"/>
<use xlink:href="#a" transform="translate(5.90759,6.05473)" height="1250" width="1250" y="0" x="0"/>
<use xlink:href="#a" transform="translate(8.628879,8.772087)" height="1250" width="1250" y="0" x="0"/>
<use xlink:href="#a" transform="translate(0,12.10946)" height="1250" width="1250" y="0" x="0"/>
<use xlink:href="#a" transform="translate(11.81518,12.10946)" height="1250" width="1250" y="0" x="0"/>
</g>
</svg>
