<?xml version="1.0" encoding="UTF-8" standalone="no"?>
<svg xmlns:rdf="http://www.w3.org/1999/02/22-rdf-syntax-ns#" xmlns="http://www.w3.org/2000/svg" version="1.1" xmlns:cc="http://creativecommons.org/ns#" viewBox="0 0 16 16" xmlns:dc="http://purl.org/dc/elements/1.1/">
<metadata>
<rdf:RDF>
<cc:Work rdf:about="">
<dc:format>image/svg+xml</dc:format>
<dc:type rdf:resource="http://purl.org/dc/dcmitype/StillImage"/>
</cc:Work>
</rdf:RDF>
</metadata>
<g transform="translate(-350,-215)">
<rect height="16" width="16" y="215" x="350" fill="none"/>
<g fill="#98b6d6" stroke="#000" fill-opacity=".7">
<rect y="216.5" x="351.5" height="5" width="5"/>
<rect y="216.5" x="359.5" height="5" width="5"/>
<rect y="224.5" x="351.5" height="5" width="5"/>
<rect y="224.5" x="359.5" height="5" width="5"/>
</g>
</g>
</svg>
