<?xml version="1.0" encoding="UTF-8" standalone="no"?>
<svg xmlns:rdf="http://www.w3.org/1999/02/22-rdf-syntax-ns#" xmlns="http://www.w3.org/2000/svg" version="1.1" xmlns:cc="http://creativecommons.org/ns#" viewBox="0 0 16.0839 15.9978" xmlns:dc="http://purl.org/dc/elements/1.1/">
<metadata>
<rdf:RDF>
<cc:Work rdf:about="">
<dc:format>image/svg+xml</dc:format>
<dc:type rdf:resource="http://purl.org/dc/dcmitype/StillImage"/>
</cc:Work>
</rdf:RDF>
</metadata>
<g transform="translate(-314.9161,-209)">
<path stroke-linejoin="round" style="color:#000000" d="m315.4161 214.5498h10.0839v9.948h-10.0839v-9.948zm15.0839 0.4827c0 3.0539-2.4709 5.5324-5.5153 5.5324-3.0445 0-5.5153-2.4785-5.5153-5.5324 0-3.054 2.4708-5.5325 5.5153-5.5325 3.0444 0 5.5153 2.4785 5.5153 5.5325z" fill-rule="evenodd" fill-opacity=".7019608" stroke="#00f" stroke-miterlimit="0" stroke-width="1.0000002" fill="#99b7d6"/>
</g>
</svg>
