<?xml version="1.0" encoding="UTF-8" standalone="no"?>
<svg xmlns:rdf="http://www.w3.org/1999/02/22-rdf-syntax-ns#" xmlns="http://www.w3.org/2000/svg" version="1.0" xmlns:cc="http://creativecommons.org/ns#" xmlns:xlink="http://www.w3.org/1999/xlink" viewBox="0 0 32 32" xmlns:dc="http://purl.org/dc/elements/1.1/">
<metadata>
<rdf:RDF>
<cc:Work rdf:about="">
<dc:format>image/svg+xml</dc:format>
<dc:type rdf:resource="http://purl.org/dc/dcmitype/StillImage"/>
<dc:title/>
</cc:Work>
</rdf:RDF>
</metadata>
<use xlink:href="#a" transform="matrix(-1,0,0,1,32,0)" height="32" width="32" y="0" x="0"/>
<path id="a" style="block-progression:tb;text-indent:0;color:#000000;text-transform:none" d="m0 0v2.25l29.75 29.75h2.25v-2.25l-29.75-29.75h-2.25z" fill="#6d0000"/>
</svg>
